…
dplyr::mutate(sample_dta, x = lapply(mgrs, mgrs_to_latlng, include_mgrs_ref = FALSE)) %>% 
  tidyr::unnest(x)
## # A tibble: 50 x 4
##       id mgrs      lat    lng
##    <int> <chr>   <dbl>  <dbl>
##  1     1 16SEB20  32.5  -86.8
##  2     2 09UXQ25  49.2 -127. 
##  3     3 12SVC48  34.2 -112. 
##  4     4 15SWU64  34.7  -92.3
##  5     5 11SKA54  36.5 -120. 
##  6     6 13SDC58  38.7 -106. 
##  7     7 18TYM20  41.5  -72.4
##  8     8 18SWH08  38.7  -75.0
##  9     9 17RML38  27.8  -81.7
## 10    10 17SKR77  32.2  -83.4
## # … with 40 more rows
```
…
